Minimize TwoMinima Function, Function Supplied without Derivatives

Start value: -5


Message returned from Uncmin: 1

Function minimum: 
-0.20185793

Parameters: 1
1.8141341 


Gradient: 1
1.4514501e-09 


Hessian:  1 1
0.19271505 



Start value: -4


Message returned from Uncmin: -7

Function minimum: 
nan

Parameters: 1
nan 


Gradient: 1
0.14772005 


Hessian:  1 1
1.518784e-10 



Start value: -3


Message returned from Uncmin: -7

Function minimum: 
nan

Parameters: 1
nan 


Gradient: 1
0.048127874 


Hessian:  1 1
1.2252615e-09 



Start value: -2


Message returned from Uncmin: -7

Function minimum: 
nan

Parameters: 1
nan 


Gradient: 1
0.17755293 


Hessian:  1 1
1.5264874e-09 



Start value: -1


Message returned from Uncmin: 1

Function minimum: 
-0.20185793

Parameters: 1
1.8141341 


Gradient: 1
7.2572503e-09 


Hessian:  1 1
0.19277671 



Start value: 0


Message returned from Uncmin: 1

Function minimum: 
-0.33783423

Parameters: 1
0.039537955 


Gradient: 1
-5.2662502e-09 


Hessian:  1 1
0.59872995 



Start value: 1


Message returned from Uncmin: -7

Function minimum: 
nan

Parameters: 1
nan 


Gradient: 1
-5.2662502e-09 


Hessian:  1 1
4.6314959e-09 



Start value: 2


Message returned from Uncmin: 1

Function minimum: 
-0.20185793

Parameters: 1
1.8141348 


Gradient: 1
1.3740389e-07 


Hessian:  1 1
0.19310035 



Start value: 3


Message returned from Uncmin: -7

Function minimum: 
nan

Parameters: 1
nan 


Gradient: 1
1.3740389e-07 


Hessian:  1 1
1.809351e-09 



Start value: 4


Message returned from Uncmin: -7

Function minimum: 
nan

Parameters: 1
nan 


Gradient: 1
1.3740389e-07 


Hessian:  1 1
6.8472417e-10 



Start value: 5


Message returned from Uncmin: -7

Function minimum: 
nan

Parameters: 1
nan 


Gradient: 1
1.3740389e-07 


Hessian:  1 1
1.048941e-10 




Minimize TwoMinima Function, Function and First Derivative Supplied

Start value: -5


Message returned from Uncmin: 1

Function minimum: 
-0.20185793

Parameters: 1
1.8141341 


Gradient: 1
4.6068525e-10 


Hessian:  1 1
0.19270327 



Start value: -4


Message returned from Uncmin: -7

Function minimum: 
nan

Parameters: 1
nan 


Gradient: 1
0.14772005 


Hessian:  1 1
1.5167478e-10 



Start value: -3


Message returned from Uncmin: -7

Function minimum: 
nan

Parameters: 1
nan 


Gradient: 1
0.048127883 


Hessian:  1 1
1.2253226e-09 



Start value: -2


Message returned from Uncmin: -7

Function minimum: 
nan

Parameters: 1
nan 


Gradient: 1
0.17755293 


Hessian:  1 1
1.5263338e-09 



Start value: -1


Message returned from Uncmin: 1

Function minimum: 
-0.20185793

Parameters: 1
1.8141342 


Gradient: 1
5.7091244e-09 


Hessian:  1 1
0.19276474 



Start value: 0


Message returned from Uncmin: 1

Function minimum: 
-0.33783423

Parameters: 1
0.03953797 


Gradient: 1
-4.9480403e-09 


Hessian:  1 1
0.59873342 



Start value: 1


Message returned from Uncmin: -7

Function minimum: 
nan

Parameters: 1
nan 


Gradient: 1
-4.9480403e-09 


Hessian:  1 1
4.6314797e-09 



Start value: 2


Message returned from Uncmin: 1

Function minimum: 
-0.20185793

Parameters: 1
1.8141348 


Gradient: 1
1.294554e-07 


Hessian:  1 1
0.19308793 



Start value: 3


Message returned from Uncmin: -7

Function minimum: 
nan

Parameters: 1
nan 


Gradient: 1
1.294554e-07 


Hessian:  1 1
1.8093096e-09 



Start value: 4


Message returned from Uncmin: -7

Function minimum: 
nan

Parameters: 1
nan 


Gradient: 1
1.294554e-07 


Hessian:  1 1
6.8477073e-10 



Start value: 5


Message returned from Uncmin: -7

Function minimum: 
nan

Parameters: 1
nan 


Gradient: 1
1.294554e-07 


Hessian:  1 1
1.0490437e-10 




Minimize TwoMinima Function, Function, 1st- and 2nd-order Derivatives Supplied

Start value: -5


Message returned from Uncmin: 1

Function minimum: 
-0.20185793

Parameters: 1
1.8141341 


Gradient: 1
4.5999543e-10 


Hessian:  1 1
0.19270325 



Start value: -4


Message returned from Uncmin: -7

Function minimum: 
nan

Parameters: 1
nan 


Gradient: 1
0.14772005 


Hessian:  1 1
1.5167445e-10 



Start value: -3


Message returned from Uncmin: -7

Function minimum: 
nan

Parameters: 1
nan 


Gradient: 1
0.048127883 


Hessian:  1 1
1.2253227e-09 



Start value: -2


Message returned from Uncmin: -7

Function minimum: 
nan

Parameters: 1
nan 


Gradient: 1
0.17755293 


Hessian:  1 1
1.5263335e-09 



Start value: -1


Message returned from Uncmin: 1

Function minimum: 
-0.20185793

Parameters: 1
1.8141342 


Gradient: 1
5.7066259e-09 


Hessian:  1 1
0.19276472 



Start value: 0


Message returned from Uncmin: 1

Function minimum: 
-0.33783423

Parameters: 1
0.03953797 


Gradient: 1
-4.9489802e-09 


Hessian:  1 1
0.59873343 



Start value: 1


Message returned from Uncmin: -7

Function minimum: 
nan

Parameters: 1
nan 


Gradient: 1
-4.9489802e-09 


Hessian:  1 1
4.6314797e-09 



Start value: 2


Message returned from Uncmin: 1

Function minimum: 
-0.20185793

Parameters: 1
1.8141348 


Gradient: 1
1.2944341e-07 


Hessian:  1 1
0.19308791 



Start value: 3


Message returned from Uncmin: -7

Function minimum: 
nan

Parameters: 1
nan 


Gradient: 1
1.2944341e-07 


Hessian:  1 1
1.8093095e-09 



Start value: 4


Message returned from Uncmin: -7

Function minimum: 
nan

Parameters: 1
nan 


Gradient: 1
1.2944341e-07 


Hessian:  1 1
6.847708e-10 



Start value: 5


Message returned from Uncmin: -7

Function minimum: 
nan

Parameters: 1
nan 


Gradient: 1
1.2944341e-07 


Hessian:  1 1
1.0490439e-10 


